Target,Target_Namespace,Target_Type,Target_Method,Job_Id,Job_AnalyzeLaunchVariance,Job_EvaluateOverhead,Job_MaxStdErrRelative,Job_MinInvokeCount,Job_MinIterationTime,Job_RemoveOutliers,Job_Affinity,Job_Jit,Job_Platform,Job_Runtime,Job_AllowVeryLargeObjects,Job_Concurrent,Job_CpuGroups,Job_Force,Job_Server,Job_Clock,Job_EngineFactory,Job_Toolchain,Job_InvocationCount,Job_IterationTime,Job_LaunchCount,Job_RunStrategy,Job_TargetCount,Job_UnrollFactor,Job_WarmupCount,Job_Display,Params,Measurement_LaunchIndex,Measurement_IterationMode,Measurement_IterationIndex,Measurement_Nanoseconds,Measurement_Operations,Measurement_Value,Gen_0,Gen_1,Gen_2,Allocated_Bytes
CpuHog.BeAHog,Benchmarking,CpuHog,BeAHog,Default,Default,Default,Default,Default,Default,Default,Default,Default,Default,Default,Default,Default,Default,Default,Default,Default,Default,Default,Default,Default,Default,Default,Default,Default,Default,DefaultJob,,1,Pilot,1,79016119.67,16,4938507.48,0,0,0,7
CpuHog.BeAHog,Benchmarking,CpuHog,BeAHog,Default,Default,Default,Default,Default,Default,Default,Default,Default,Default,Default,Default,Default,Default,Default,Default,Default,Default,Default,Default,Default,Default,Default,Default,Default,Default,DefaultJob,,1,Pilot,2,159029799.32,32,4969681.23,0,0,0,7
CpuHog.BeAHog,Benchmarking,CpuHog,BeAHog,Default,Default,Default,Default,Default,Default,Default,Default,Default,Default,Default,Default,Default,Default,Default,Default,Default,Default,Default,Default,Default,Default,Default,Default,Default,Default,DefaultJob,,1,Pilot,3,317976404.65,64,4968381.32,0,0,0,7
CpuHog.BeAHog,Benchmarking,CpuHog,BeAHog,Default,Default,Default,Default,Default,Default,Default,Default,Default,Default,Default,Default,Default,Default,Default,Default,Default,Default,Default,Default,Default,Default,Default,Default,Default,Default,DefaultJob,,1,IdleWarmup,1,2303.83,64,36,0,0,0,7
CpuHog.BeAHog,Benchmarking,CpuHog,BeAHog,Default,Default,Default,Default,Default,Default,Default,Default,Default,Default,Default,Default,Default,Default,Default,Default,Default,Default,Default,Default,Default,Default,Default,Default,Default,Default,DefaultJob,,1,IdleWarmup,2,511.96,64,8,0,0,0,7
CpuHog.BeAHog,Benchmarking,CpuHog,BeAHog,Default,Default,Default,Default,Default,Default,Default,Default,Default,Default,Default,Default,Default,Default,Default,Default,Default,Default,Default,Default,Default,Default,Default,Default,Default,Default,DefaultJob,,1,IdleWarmup,3,255.98,64,4,0,0,0,7
CpuHog.BeAHog,Benchmarking,CpuHog,BeAHog,Default,Default,Default,Default,Default,Default,Default,Default,Default,Default,Default,Default,Default,Default,Default,Default,Default,Default,Default,Default,Default,Default,Default,Default,Default,Default,DefaultJob,,1,IdleWarmup,4,511.96,64,8,0,0,0,7
CpuHog.BeAHog,Benchmarking,CpuHog,BeAHog,Default,Default,Default,Default,Default,Default,Default,Default,Default,Default,Default,Default,Default,Default,Default,Default,Default,Default,Default,Default,Default,Default,Default,Default,Default,Default,DefaultJob,,1,IdleWarmup,5,255.98,64,4,0,0,0,7
CpuHog.BeAHog,Benchmarking,CpuHog,BeAHog,Default,Default,Default,Default,Default,Default,Default,Default,Default,Default,Default,Default,Default,Default,Default,Default,Default,Default,Default,Default,Default,Default,Default,Default,Default,Default,DefaultJob,,1,IdleWarmup,6,255.98,64,4,0,0,0,7
CpuHog.BeAHog,Benchmarking,CpuHog,BeAHog,Default,Default,Default,Default,Default,Default,Default,Default,Default,Default,Default,Default,Default,Default,Default,Default,Default,Default,Default,Default,Default,Default,Default,Default,Default,Default,DefaultJob,,1,IdleWarmup,7,255.98,64,4,0,0,0,7
CpuHog.BeAHog,Benchmarking,CpuHog,BeAHog,Default,Default,Default,Default,Default,Default,Default,Default,Default,Default,Default,Default,Default,Default,Default,Default,Default,Default,Default,Default,Default,Default,Default,Default,Default,Default,DefaultJob,,1,IdleTarget,1,511.96,64,8,0,0,0,7
CpuHog.BeAHog,Benchmarking,CpuHog,BeAHog,Default,Default,Default,Default,Default,Default,Default,Default,Default,Default,Default,Default,Default,Default,Default,Default,Default,Default,Default,Default,Default,Default,Default,Default,Default,Default,DefaultJob,,1,IdleTarget,2,255.98,64,4,0,0,0,7
CpuHog.BeAHog,Benchmarking,CpuHog,BeAHog,Default,Default,Default,Default,Default,Default,Default,Default,Default,Default,Default,Default,Default,Default,Default,Default,Default,Default,Default,Default,Default,Default,Default,Default,Default,Default,DefaultJob,,1,IdleTarget,3,511.96,64,8,0,0,0,7
CpuHog.BeAHog,Benchmarking,CpuHog,BeAHog,Default,Default,Default,Default,Default,Default,Default,Default,Default,Default,Default,Default,Default,Default,Default,Default,Default,Default,Default,Default,Default,Default,Default,Default,Default,Default,DefaultJob,,1,IdleTarget,4,255.98,64,4,0,0,0,7
CpuHog.BeAHog,Benchmarking,CpuHog,BeAHog,Default,Default,Default,Default,Default,Default,Default,Default,Default,Default,Default,Default,Default,Default,Default,Default,Default,Default,Default,Default,Default,Default,Default,Default,Default,Default,DefaultJob,,1,IdleTarget,5,255.98,64,4,0,0,0,7
CpuHog.BeAHog,Benchmarking,CpuHog,BeAHog,Default,Default,Default,Default,Default,Default,Default,Default,Default,Default,Default,Default,Default,Default,Default,Default,Default,Default,Default,Default,Default,Default,Default,Default,Default,Default,DefaultJob,,1,IdleTarget,6,511.96,64,8,0,0,0,7
CpuHog.BeAHog,Benchmarking,CpuHog,BeAHog,Default,Default,Default,Default,Default,Default,Default,Default,Default,Default,Default,Default,Default,Default,Default,Default,Default,Default,Default,Default,Default,Default,Default,Default,Default,Default,DefaultJob,,1,IdleTarget,7,255.98,64,4,0,0,0,7
CpuHog.BeAHog,Benchmarking,CpuHog,BeAHog,Default,Default,Default,Default,Default,Default,Default,Default,Default,Default,Default,Default,Default,Default,Default,Default,Default,Default,Default,Default,Default,Default,Default,Default,Default,Default,DefaultJob,,1,IdleTarget,8,255.98,64,4,0,0,0,7
CpuHog.BeAHog,Benchmarking,CpuHog,BeAHog,Default,Default,Default,Default,Default,Default,Default,Default,Default,Default,Default,Default,Default,Default,Default,Default,Default,Default,Default,Default,Default,Default,Default,Default,Default,Default,DefaultJob,,1,IdleTarget,9,255.98,64,4,0,0,0,7
CpuHog.BeAHog,Benchmarking,CpuHog,BeAHog,Default,Default,Default,Default,Default,Default,Default,Default,Default,Default,Default,Default,Default,Default,Default,Default,Default,Default,Default,Default,Default,Default,Default,Default,Default,Default,DefaultJob,,1,IdleTarget,10,255.98,64,4,0,0,0,7
CpuHog.BeAHog,Benchmarking,CpuHog,BeAHog,Default,Default,Default,Default,Default,Default,Default,Default,Default,Default,Default,Default,Default,Default,Default,Default,Default,Default,Default,Default,Default,Default,Default,Default,Default,Default,DefaultJob,,1,IdleTarget,11,255.98,64,4,0,0,0,7
CpuHog.BeAHog,Benchmarking,CpuHog,BeAHog,Default,Default,Default,Default,Default,Default,Default,Default,Default,Default,Default,Default,Default,Default,Default,Default,Default,Default,Default,Default,Default,Default,Default,Default,Default,Default,DefaultJob,,1,IdleTarget,12,255.98,64,4,0,0,0,7
CpuHog.BeAHog,Benchmarking,CpuHog,BeAHog,Default,Default,Default,Default,Default,Default,Default,Default,Default,Default,Default,Default,Default,Default,Default,Default,Default,Default,Default,Default,Default,Default,Default,Default,Default,Default,DefaultJob,,1,IdleTarget,13,255.98,64,4,0,0,0,7
CpuHog.BeAHog,Benchmarking,CpuHog,BeAHog,Default,Default,Default,Default,Default,Default,Default,Default,Default,Default,Default,Default,Default,Default,Default,Default,Default,Default,Default,Default,Default,Default,Default,Default,Default,Default,DefaultJob,,1,IdleTarget,14,255.98,64,4,0,0,0,7
CpuHog.BeAHog,Benchmarking,CpuHog,BeAHog,Default,Default,Default,Default,Default,Default,Default,Default,Default,Default,Default,Default,Default,Default,Default,Default,Default,Default,Default,Default,Default,Default,Default,Default,Default,Default,DefaultJob,,1,IdleTarget,15,767.94,64,12,0,0,0,7
CpuHog.BeAHog,Benchmarking,CpuHog,BeAHog,Default,Default,Default,Default,Default,Default,Default,Default,Default,Default,Default,Default,Default,Default,Default,Default,Default,Default,Default,Default,Default,Default,Default,Default,Default,Default,DefaultJob,,1,IdleTarget,16,255.98,64,4,0,0,0,7
CpuHog.BeAHog,Benchmarking,CpuHog,BeAHog,Default,Default,Default,Default,Default,Default,Default,Default,Default,Default,Default,Default,Default,Default,Default,Default,Default,Default,Default,Default,Default,Default,Default,Default,Default,Default,DefaultJob,,1,IdleTarget,17,255.98,64,4,0,0,0,7
CpuHog.BeAHog,Benchmarking,CpuHog,BeAHog,Default,Default,Default,Default,Default,Default,Default,Default,Default,Default,Default,Default,Default,Default,Default,Default,Default,Default,Default,Default,Default,Default,Default,Default,Default,Default,DefaultJob,,1,MainWarmup,1,312438500.44,64,4881851.57,0,0,0,7
CpuHog.BeAHog,Benchmarking,CpuHog,BeAHog,Default,Default,Default,Default,Default,Default,Default,Default,Default,Default,Default,Default,Default,Default,Default,Default,Default,Default,Default,Default,Default,Default,Default,Default,Default,Default,DefaultJob,,1,MainWarmup,2,312946367.78,64,4889787,0,0,0,7
CpuHog.BeAHog,Benchmarking,CpuHog,BeAHog,Default,Default,Default,Default,Default,Default,Default,Default,Default,Default,Default,Default,Default,Default,Default,Default,Default,Default,Default,Default,Default,Default,Default,Default,Default,Default,DefaultJob,,1,MainWarmup,3,312497376.19,64,4882771.5,0,0,0,7
CpuHog.BeAHog,Benchmarking,CpuHog,BeAHog,Default,Default,Default,Default,Default,Default,Default,Default,Default,Default,Default,Default,Default,Default,Default,Default,Default,Default,Default,Default,Default,Default,Default,Default,Default,Default,DefaultJob,,1,MainWarmup,4,312814281.31,64,4887723.15,0,0,0,7
CpuHog.BeAHog,Benchmarking,CpuHog,BeAHog,Default,Default,Default,Default,Default,Default,Default,Default,Default,Default,Default,Default,Default,Default,Default,Default,Default,Default,Default,Default,Default,Default,Default,Default,Default,Default,DefaultJob,,1,MainWarmup,5,312948159.65,64,4889814.99,0,0,0,7
CpuHog.BeAHog,Benchmarking,CpuHog,BeAHog,Default,Default,Default,Default,Default,Default,Default,Default,Default,Default,Default,Default,Default,Default,Default,Default,Default,Default,Default,Default,Default,Default,Default,Default,Default,Default,DefaultJob,,1,MainWarmup,6,312895683.43,64,4888995.05,0,0,0,7
CpuHog.BeAHog,Benchmarking,CpuHog,BeAHog,Default,Default,Default,Default,Default,Default,Default,Default,Default,Default,Default,Default,Default,Default,Default,Default,Default,Default,Default,Default,Default,Default,Default,Default,Default,Default,DefaultJob,,1,MainTarget,1,313097396.87,64,4892146.83,0,0,0,7
CpuHog.BeAHog,Benchmarking,CpuHog,BeAHog,Default,Default,Default,Default,Default,Default,Default,Default,Default,Default,Default,Default,Default,Default,Default,Default,Default,Default,Default,Default,Default,Default,Default,Default,Default,Default,DefaultJob,,1,MainTarget,2,313343395.11,64,4895990.55,0,0,0,7
CpuHog.BeAHog,Benchmarking,CpuHog,BeAHog,Default,Default,Default,Default,Default,Default,Default,Default,Default,Default,Default,Default,Default,Default,Default,Default,Default,Default,Default,Default,Default,Default,Default,Default,Default,Default,DefaultJob,,1,MainTarget,3,313244330.27,64,4894442.66,0,0,0,7
CpuHog.BeAHog,Benchmarking,CpuHog,BeAHog,Default,Default,Default,Default,Default,Default,Default,Default,Default,Default,Default,Default,Default,Default,Default,Default,Default,Default,Default,Default,Default,Default,Default,Default,Default,Default,DefaultJob,,1,MainTarget,4,313581713.91,64,4899714.28,0,0,0,7
CpuHog.BeAHog,Benchmarking,CpuHog,BeAHog,Default,Default,Default,Default,Default,Default,Default,Default,Default,Default,Default,Default,Default,Default,Default,Default,Default,Default,Default,Default,Default,Default,Default,Default,Default,Default,DefaultJob,,1,MainTarget,5,313450651.37,64,4897666.43,0,0,0,7
CpuHog.BeAHog,Benchmarking,CpuHog,BeAHog,Default,Default,Default,Default,Default,Default,Default,Default,Default,Default,Default,Default,Default,Default,Default,Default,Default,Default,Default,Default,Default,Default,Default,Default,Default,Default,DefaultJob,,1,MainTarget,6,313648269.1,64,4900754.2,0,0,0,7
CpuHog.BeAHog,Benchmarking,CpuHog,BeAHog,Default,Default,Default,Default,Default,Default,Default,Default,Default,Default,Default,Default,Default,Default,Default,Default,Default,Default,Default,Default,Default,Default,Default,Default,Default,Default,DefaultJob,,1,MainTarget,7,313783427.35,64,4902866.05,0,0,0,7
CpuHog.BeAHog,Benchmarking,CpuHog,BeAHog,Default,Default,Default,Default,Default,Default,Default,Default,Default,Default,Default,Default,Default,Default,Default,Default,Default,Default,Default,Default,Default,Default,Default,Default,Default,Default,DefaultJob,,1,MainTarget,8,314284639.16,64,4910697.49,0,0,0,7
CpuHog.BeAHog,Benchmarking,CpuHog,BeAHog,Default,Default,Default,Default,Default,Default,Default,Default,Default,Default,Default,Default,Default,Default,Default,Default,Default,Default,Default,Default,Default,Default,Default,Default,Default,Default,DefaultJob,,1,MainTarget,9,312970686.02,64,4890166.97,0,0,0,7
CpuHog.BeAHog,Benchmarking,CpuHog,BeAHog,Default,Default,Default,Default,Default,Default,Default,Default,Default,Default,Default,Default,Default,Default,Default,Default,Default,Default,Default,Default,Default,Default,Default,Default,Default,Default,DefaultJob,,1,MainTarget,10,312803530.09,64,4887555.16,0,0,0,7
CpuHog.BeAHog,Benchmarking,CpuHog,BeAHog,Default,Default,Default,Default,Default,Default,Default,Default,Default,Default,Default,Default,Default,Default,Default,Default,Default,Default,Default,Default,Default,Default,Default,Default,Default,Default,DefaultJob,,1,MainTarget,11,313027513.92,64,4891054.91,0,0,0,7
CpuHog.BeAHog,Benchmarking,CpuHog,BeAHog,Default,Default,Default,Default,Default,Default,Default,Default,Default,Default,Default,Default,Default,Default,Default,Default,Default,Default,Default,Default,Default,Default,Default,Default,Default,Default,DefaultJob,,1,MainTarget,12,313952631.13,64,4905509.86,0,0,0,7
CpuHog.BeAHog,Benchmarking,CpuHog,BeAHog,Default,Default,Default,Default,Default,Default,Default,Default,Default,Default,Default,Default,Default,Default,Default,Default,Default,Default,Default,Default,Default,Default,Default,Default,Default,Default,DefaultJob,,1,MainTarget,13,331412106.7,64,5178314.17,0,0,0,7
CpuHog.BeAHog,Benchmarking,CpuHog,BeAHog,Default,Default,Default,Default,Default,Default,Default,Default,Default,Default,Default,Default,Default,Default,Default,Default,Default,Default,Default,Default,Default,Default,Default,Default,Default,Default,DefaultJob,,1,MainTarget,14,313665419.87,64,4901022.19,0,0,0,7
CpuHog.BeAHog,Benchmarking,CpuHog,BeAHog,Default,Default,Default,Default,Default,Default,Default,Default,Default,Default,Default,Default,Default,Default,Default,Default,Default,Default,Default,Default,Default,Default,Default,Default,Default,Default,DefaultJob,,1,MainTarget,15,313360289.89,64,4896254.53,0,0,0,7
CpuHog.BeAHog,Benchmarking,CpuHog,BeAHog,Default,Default,Default,Default,Default,Default,Default,Default,Default,Default,Default,Default,Default,Default,Default,Default,Default,Default,Default,Default,Default,Default,Default,Default,Default,Default,DefaultJob,,1,Result,1,313097065.6,64,4892141.65,0,0,0,7
CpuHog.BeAHog,Benchmarking,CpuHog,BeAHog,Default,Default,Default,Default,Default,Default,Default,Default,Default,Default,Default,Default,Default,Default,Default,Default,Default,Default,Default,Default,Default,Default,Default,Default,Default,Default,DefaultJob,,1,Result,2,313343063.84,64,4895985.37,0,0,0,7
CpuHog.BeAHog,Benchmarking,CpuHog,BeAHog,Default,Default,Default,Default,Default,Default,Default,Default,Default,Default,Default,Default,Default,Default,Default,Default,Default,Default,Default,Default,Default,Default,Default,Default,Default,Default,DefaultJob,,1,Result,3,313243999,64,4894437.48,0,0,0,7
CpuHog.BeAHog,Benchmarking,CpuHog,BeAHog,Default,Default,Default,Default,Default,Default,Default,Default,Default,Default,Default,Default,Default,Default,Default,Default,Default,Default,Default,Default,Default,Default,Default,Default,Default,Default,DefaultJob,,1,Result,4,313581382.64,64,4899709.1,0,0,0,7
CpuHog.BeAHog,Benchmarking,CpuHog,BeAHog,Default,Default,Default,Default,Default,Default,Default,Default,Default,Default,Default,Default,Default,Default,Default,Default,Default,Default,Default,Default,Default,Default,Default,Default,Default,Default,DefaultJob,,1,Result,5,313450320.1,64,4897661.25,0,0,0,7
CpuHog.BeAHog,Benchmarking,CpuHog,BeAHog,Default,Default,Default,Default,Default,Default,Default,Default,Default,Default,Default,Default,Default,Default,Default,Default,Default,Default,Default,Default,Default,Default,Default,Default,Default,Default,DefaultJob,,1,Result,6,313647937.83,64,4900749.03,0,0,0,7
CpuHog.BeAHog,Benchmarking,CpuHog,BeAHog,Default,Default,Default,Default,Default,Default,Default,Default,Default,Default,Default,Default,Default,Default,Default,Default,Default,Default,Default,Default,Default,Default,Default,Default,Default,Default,DefaultJob,,1,Result,7,313783096.08,64,4902860.88,0,0,0,7
CpuHog.BeAHog,Benchmarking,CpuHog,BeAHog,Default,Default,Default,Default,Default,Default,Default,Default,Default,Default,Default,Default,Default,Default,Default,Default,Default,Default,Default,Default,Default,Default,Default,Default,Default,Default,DefaultJob,,1,Result,8,314284307.89,64,4910692.31,0,0,0,7
CpuHog.BeAHog,Benchmarking,CpuHog,BeAHog,Default,Default,Default,Default,Default,Default,Default,Default,Default,Default,Default,Default,Default,Default,Default,Default,Default,Default,Default,Default,Default,Default,Default,Default,Default,Default,DefaultJob,,1,Result,9,312970354.75,64,4890161.79,0,0,0,7
CpuHog.BeAHog,Benchmarking,CpuHog,BeAHog,Default,Default,Default,Default,Default,Default,Default,Default,Default,Default,Default,Default,Default,Default,Default,Default,Default,Default,Default,Default,Default,Default,Default,Default,Default,Default,DefaultJob,,1,Result,10,312803198.82,64,4887549.98,0,0,0,7
CpuHog.BeAHog,Benchmarking,CpuHog,BeAHog,Default,Default,Default,Default,Default,Default,Default,Default,Default,Default,Default,Default,Default,Default,Default,Default,Default,Default,Default,Default,Default,Default,Default,Default,Default,Default,DefaultJob,,1,Result,11,313027182.65,64,4891049.73,0,0,0,7
CpuHog.BeAHog,Benchmarking,CpuHog,BeAHog,Default,Default,Default,Default,Default,Default,Default,Default,Default,Default,Default,Default,Default,Default,Default,Default,Default,Default,Default,Default,Default,Default,Default,Default,Default,Default,DefaultJob,,1,Result,12,313952299.86,64,4905504.69,0,0,0,7
CpuHog.BeAHog,Benchmarking,CpuHog,BeAHog,Default,Default,Default,Default,Default,Default,Default,Default,Default,Default,Default,Default,Default,Default,Default,Default,Default,Default,Default,Default,Default,Default,Default,Default,Default,Default,DefaultJob,,1,Result,13,313665088.6,64,4901017.01,0,0,0,7
CpuHog.BeAHog,Benchmarking,CpuHog,BeAHog,Default,Default,Default,Default,Default,Default,Default,Default,Default,Default,Default,Default,Default,Default,Default,Default,Default,Default,Default,Default,Default,Default,Default,Default,Default,Default,DefaultJob,,1,Result,14,313359958.62,64,4896249.35,0,0,0,7
