Method,Job,AnalyzeLaunchVariance,EvaluateOverhead,MaxStdErrRelative,MinInvokeCount,MinIterationTime,RemoveOutliers,Affinity,Jit,Platform,Runtime,AllowVeryLargeObjects,Concurrent,CpuGroups,Force,Server,Clock,EngineFactory,Toolchain,InvocationCount,IterationTime,LaunchCount,RunStrategy,TargetCount,UnrollFactor,WarmupCount,Mean,StdDev,Allocated
BeAHog,Default,False,Default,Default,Default,Default,Default,255,RyuJit,X64,Core,False,True,False,True,False,Default,Default,Default,1,Default,Default,Default,Default,16,Default,4.8976 ms,0.0064 ms,7 B
1 ms,0.8696 ms,354.1667,354.1667,354.1667,200 MB
